  .100E-01    .815E-01   -.934E-01    .000E+00
  .200E-01    .326E+00   -.373E+00    .000E+00
  .300E-01    .730E+00   -.835E+00    .000E+00
  .400E-01    .129E+01   -.148E+01    .000E+00
  .500E-01    .201E+01   -.229E+01    .000E+00
  .600E-01    .286E+01   -.327E+01    .000E+00
  .700E-01    .386E+01   -.441E+01    .000E+00
  .800E-01    .498E+01   -.569E+01    .000E+00
  .900E-01    .622E+01   -.711E+01    .000E+00
  .100E+00    .756E+01   -.865E+01    .000E+00
  .110E+00    .899E+01   -.103E+02    .000E+00
  .120E+00    .105E+02   -.120E+02    .000E+00
  .130E+00    .121E+02   -.138E+02    .000E+00
  .140E+00    .137E+02   -.157E+02    .000E+00
  .150E+00    .153E+02   -.176E+02    .000E+00
  .160E+00    .170E+02   -.196E+02    .000E+00
  .170E+00    .187E+02   -.216E+02    .000E+00
  .180E+00    .204E+02   -.235E+02    .000E+00
  .190E+00    .220E+02   -.255E+02    .000E+00
  .200E+00    .236E+02   -.274E+02    .500E+00
  .210E+00    .668E+01   -.283E+02    .500E+00
  .220E+00    .749E+01   -.293E+02    .500E+00
  .230E+00    .831E+01   -.303E+02    .500E+00
  .240E+00    .913E+01   -.314E+02    .500E+00
  .250E+00    .995E+01   -.324E+02    .500E+00
  .260E+00    .108E+02   -.334E+02    .500E+00
  .270E+00    .116E+02   -.345E+02    .500E+00
  .280E+00    .124E+02   -.355E+02    .500E+00
  .290E+00    .131E+02   -.365E+02    .500E+00
  .300E+00    .139E+02   -.375E+02    .500E+00
  .310E+00    .146E+02   -.384E+02    .500E+00
  .320E+00    .152E+02   -.393E+02    .500E+00
  .330E+00    .158E+02   -.402E+02    .500E+00
  .340E+00    .164E+02   -.410E+02    .500E+00
  .350E+00    .169E+02   -.418E+02    .500E+00
  .360E+00    .174E+02   -.425E+02    .500E+00
  .370E+00    .178E+02   -.432E+02    .500E+00
  .380E+00    .182E+02   -.438E+02    .500E+00
  .390E+00    .185E+02   -.444E+02    .500E+00
  .400E+00    .188E+02   -.449E+02    .500E+00
  .410E+00    .479E+01   -.451E+02    .500E+00
  .420E+00    .488E+01   -.454E+02    .500E+00
  .430E+00    .497E+01   -.456E+02    .500E+00
  .440E+00    .504E+01   -.458E+02    .500E+00
  .450E+00    .511E+01   -.460E+02    .500E+00
  .460E+00    .517E+01   -.462E+02    .500E+00
  .470E+00    .523E+01   -.464E+02    .500E+00
  .480E+00    .528E+01   -.466E+02    .500E+00
  .490E+00    .533E+01   -.467E+02    .500E+00
  .500E+00    .537E+01   -.469E+02    .500E+00
  .510E+00    .540E+01   -.471E+02    .500E+00
  .520E+00    .543E+01   -.472E+02    .500E+00
  .530E+00    .546E+01   -.474E+02    .500E+00
  .540E+00    .548E+01   -.475E+02    .500E+00
  .550E+00    .550E+01   -.476E+02    .500E+00
  .560E+00    .551E+01   -.477E+02    .500E+00
  .570E+00    .553E+01   -.479E+02    .500E+00
  .580E+00    .554E+01   -.480E+02    .500E+00
  .590E+00    .554E+01   -.481E+02    .500E+00
  .600E+00    .555E+01   -.482E+02    .500E+00
  .610E+00    .139E+01   -.482E+02    .500E+00
  .620E+00    .140E+01   -.483E+02    .500E+00
  .630E+00    .142E+01   -.483E+02    .500E+00
  .640E+00    .145E+01   -.484E+02    .500E+00
  .650E+00    .148E+01   -.485E+02    .500E+00
  .660E+00    .152E+01   -.485E+02    .500E+00
  .670E+00    .157E+01   -.486E+02    .500E+00
  .680E+00    .163E+01   -.487E+02    .500E+00
  .690E+00    .169E+01   -.488E+02    .500E+00
  .700E+00    .176E+01   -.488E+02    .500E+00
  .710E+00    .184E+01   -.489E+02    .500E+00
  .720E+00    .192E+01   -.490E+02    .500E+00
  .730E+00    .200E+01   -.491E+02    .500E+00
  .740E+00    .209E+01   -.492E+02    .500E+00
  .750E+00    .218E+01   -.493E+02    .500E+00
  .760E+00    .227E+01   -.493E+02    .500E+00
  .770E+00    .237E+01   -.494E+02    .500E+00
  .780E+00    .246E+01   -.495E+02    .500E+00
  .790E+00    .256E+01   -.496E+02    .500E+00
  .800E+00    .266E+01   -.496E+02    .500E+00
  .810E+00    .712E+00   -.497E+02    .500E+00
  .820E+00    .765E+00   -.497E+02    .500E+00
  .830E+00    .822E+00   -.497E+02    .500E+00
  .840E+00    .882E+00   -.498E+02    .500E+00
  .850E+00    .944E+00   -.498E+02    .500E+00
  .860E+00    .101E+01   -.498E+02    .500E+00
  .870E+00    .108E+01   -.499E+02    .500E+00
  .880E+00    .115E+01   -.499E+02    .500E+00
  .890E+00    .122E+01   -.499E+02    .500E+00
  .900E+00    .129E+01   -.499E+02    .500E+00
  .910E+00    .136E+01   -.500E+02    .500E+00
  .920E+00    .143E+01   -.500E+02    .500E+00
  .930E+00    .150E+01   -.500E+02    .500E+00
  .940E+00    .156E+01   -.500E+02    .500E+00
  .950E+00    .163E+01   -.500E+02    .500E+00
  .960E+00    .169E+01   -.500E+02    .500E+00
  .970E+00    .175E+01   -.501E+02    .500E+00
  .980E+00    .181E+01   -.501E+02    .500E+00
  .990E+00    .187E+01   -.500E+02    .500E+00
  .995E+00    .189E+01   -.500E+02    .500E+00
  .100E+01    .486E+00   -.500E+02    .500E+00
  .100E+01    .499E+00   -.500E+02    .500E+00
  .101E+01    .511E+00   -.500E+02    .500E+00
  .101E+01    .524E+00   -.500E+02    .500E+00
  .102E+01    .537E+00   -.500E+02    .500E+00
  .102E+01    .550E+00   -.500E+02    .500E+00
  .103E+01    .564E+00   -.500E+02    .500E+00
  .103E+01    .577E+00   -.500E+02    .500E+00
  .104E+01    .591E+00   -.500E+02    .500E+00
  .104E+01    .604E+00   -.500E+02    .500E+00
  .105E+01    .618E+00   -.500E+02    .500E+00
  .105E+01    .631E+00   -.500E+02    .500E+00
  .106E+01    .645E+00   -.500E+02    .500E+00
  .106E+01    .659E+00   -.500E+02    .500E+00
  .107E+01    .672E+00   -.500E+02    .500E+00
  .107E+01    .686E+00   -.500E+02    .500E+00
  .108E+01    .700E+00   -.500E+02    .500E+00
  .108E+01    .713E+00   -.500E+02    .500E+00
  .109E+01    .726E+00   -.500E+02    .500E+00
  .109E+01    .740E+00   -.500E+02    .500E+00
  .110E+01    .192E+00   -.500E+02    .500E+00
  .110E+01    .199E+00   -.500E+02    .500E+00
  .111E+01    .206E+00   -.500E+02    .500E+00
  .111E+01    .213E+00   -.500E+02    .500E+00
  .112E+01    .221E+00   -.500E+02    .500E+00
  .112E+01    .229E+00   -.500E+02    .500E+00
  .113E+01    .237E+00   -.500E+02    .500E+00
  .113E+01    .246E+00   -.500E+02    .500E+00
  .114E+01    .255E+00   -.500E+02    .500E+00
  .114E+01    .263E+00   -.500E+02    .500E+00
  .115E+01    .273E+00   -.500E+02    .500E+00
  .115E+01    .282E+00   -.500E+02    .500E+00
  .116E+01    .291E+00   -.500E+02    .500E+00
  .116E+01    .301E+00   -.500E+02    .500E+00
  .117E+01    .310E+00   -.500E+02    .500E+00
  .117E+01    .320E+00   -.500E+02    .500E+00
  .118E+01    .330E+00   -.500E+02    .500E+00
  .118E+01    .340E+00   -.500E+02    .500E+00
  .119E+01    .351E+00   -.500E+02    .500E+00
  .119E+01    .361E+00   -.500E+02    .500E+00
  .120E+01    .954E-01   -.500E+02    .500E+00
  .120E+01    .101E+00   -.500E+02    .500E+00
  .121E+01    .107E+00   -.500E+02    .500E+00
  .121E+01    .112E+00   -.500E+02    .500E+00
  .122E+01    .119E+00   -.500E+02    .500E+00
  .122E+01    .125E+00   -.500E+02    .500E+00
  .123E+01    .131E+00   -.500E+02    .500E+00
  .123E+01    .138E+00   -.500E+02    .500E+00
  .124E+01    .145E+00   -.500E+02    .500E+00
  .124E+01    .148E+00   -.500E+02    .500E+00
  .124E+01    .152E+00   -.500E+02    .500E+00
  .125E+01    .156E+00   -.500E+02    .500E+00
  .125E+01    .159E+00   -.500E+02    .500E+00
  .125E+01    .163E+00   -.500E+02    .500E+00
  .125E+01    .166E+00   -.500E+02    .500E+00
  .126E+01    .170E+00   -.500E+02    .500E+00
  .126E+01    .174E+00   -.500E+02    .500E+00
  .126E+01    .178E+00   -.500E+02    .500E+00
  .126E+01    .181E+00   -.500E+02    .500E+00
  .127E+01    .185E+00   -.500E+02    .500E+00
  .127E+01    .482E-01   -.500E+02    .500E+00
  .127E+01    .502E-01   -.500E+02    .500E+00
  .127E+01    .523E-01   -.500E+02    .500E+00
  .128E+01    .543E-01   -.500E+02    .500E+00
  .128E+01    .565E-01   -.500E+02    .500E+00
  .128E+01    .586E-01   -.500E+02    .500E+00
  .128E+01    .609E-01   -.500E+02    .500E+00
  .129E+01    .631E-01   -.500E+02    .500E+00
  .129E+01    .654E-01   -.500E+02    .500E+00
  .129E+01    .678E-01   -.500E+02    .500E+00
  .129E+01    .702E-01   -.500E+02    .500E+00
  .130E+01    .726E-01   -.500E+02    .500E+00
  .130E+01    .751E-01   -.501E+02    .500E+00
  .130E+01    .776E-01   -.501E+02    .500E+00
  .130E+01    .802E-01   -.501E+02    .500E+00
  .131E+01    .828E-01   -.501E+02    .500E+00
  .131E+01    .854E-01   -.501E+02    .500E+00
  .131E+01    .880E-01   -.501E+02    .500E+00
  .131E+01    .907E-01   -.501E+02    .500E+00
  .132E+01    .935E-01   -.501E+02    .500E+00
  .132E+01    .248E-01   -.501E+02    .500E+00
  .132E+01    .262E-01   -.501E+02    .500E+00
  .132E+01    .277E-01   -.501E+02    .500E+00
  .133E+01    .292E-01   -.501E+02    .500E+00
  .133E+01    .308E-01   -.501E+02    .500E+00
  .133E+01    .324E-01   -.501E+02    .500E+00
  .133E+01    .340E-01   -.501E+02    .500E+00
  .134E+01    .357E-01   -.501E+02    .500E+00
  .134E+01    .375E-01   -.501E+02    .500E+00
  .134E+01    .392E-01   -.501E+02    .500E+00
  .134E+01    .411E-01   -.501E+02    .500E+00
  .135E+01    .429E-01   -.501E+02    .500E+00
  .135E+01    .448E-01   -.501E+02    .500E+00
  .135E+01    .467E-01   -.501E+02    .500E+00
  .135E+01    .487E-01   -.501E+02    .500E+00
  .136E+01    .507E-01   -.501E+02    .500E+00
  .136E+01    .527E-01   -.501E+02    .500E+00
  .136E+01    .548E-01   -.501E+02    .500E+00
  .136E+01    .569E-01   -.501E+02    .500E+00
  .137E+01    .590E-01   -.501E+02    .500E+00
  .137E+01    .158E-01   -.501E+02    .500E+00
  .137E+01    .170E-01   -.501E+02    .500E+00
  .137E+01    .181E-01   -.501E+02    .500E+00
  .138E+01    .194E-01   -.501E+02    .500E+00
  .138E+01    .206E-01   -.501E+02    .500E+00
  .138E+01    .219E-01   -.501E+02    .500E+00
  .138E+01    .232E-01   -.501E+02    .500E+00
  .139E+01    .246E-01   -.501E+02    .500E+00
  .139E+01    .260E-01   -.501E+02    .500E+00
  .139E+01    .274E-01   -.501E+02    .500E+00
  .139E+01    .289E-01   -.501E+02    .500E+00
  .140E+01    .304E-01   -.501E+02    .500E+00
  .140E+01    .319E-01   -.501E+02    .500E+00
  .140E+01    .335E-01   -.501E+02    .500E+00
  .140E+01    .351E-01   -.501E+02    .500E+00
  .141E+01    .367E-01   -.501E+02    .500E+00
  .141E+01    .384E-01   -.501E+02    .500E+00
  .141E+01    .401E-01   -.501E+02    .500E+00
  .141E+01    .418E-01   -.501E+02    .500E+00
  .142E+01    .435E-01   -.501E+02    .500E+00
  .142E+01    .118E-01   -.501E+02    .500E+00
  .142E+01    .127E-01   -.501E+02    .500E+00
  .142E+01    .137E-01   -.501E+02    .500E+00
  .143E+01    .147E-01   -.501E+02    .500E+00
  .143E+01    .157E-01   -.501E+02    .500E+00
  .143E+01    .168E-01   -.501E+02    .500E+00
  .143E+01    .179E-01   -.501E+02    .500E+00
  .144E+01    .191E-01   -.501E+02    .500E+00
  .144E+01    .202E-01   -.501E+02    .500E+00
  .144E+01    .214E-01   -.501E+02    .500E+00
  .144E+01    .227E-01   -.501E+02    .500E+00
  .145E+01    .239E-01   -.501E+02    .500E+00
  .145E+01    .252E-01   -.501E+02    .500E+00
  .145E+01    .265E-01   -.501E+02    .500E+00
  .145E+01    .279E-01   -.501E+