   5.210000247461721E-001   2.366550518641762E-002
        1.563000074238516   3.786156183642295E-002
        2.605000123730861   5.597636665192698E-002
        3.647000173223205   7.655357575155351E-002
        4.689000222715549   9.703073138690861E-002
        5.731000272207893   1.143971104704013E-001
        6.773000321700238   1.263086844246666E-001
        7.815000371192582   1.322062647630373E-001
        8.857000420684926   1.338434075049245E-001
        9.899000470177271   1.348289011908984E-001
       10.941000519669620   1.392618215452812E-001
       11.983000569161960   1.500266372785142E-001
       13.025000618654300   1.675307005765606E-001
       14.067000668146650   1.894707115240406E-001
       15.109000717638990   2.117089409925179E-001
       16.151000767131340   2.297991850116704E-001
       17.193000816623680   2.404216813041437E-001
       18.235000866116030   2.421150565308598E-001
       19.277000915608370   2.351413749386875E-001
       20.319000965100710   2.208012638963898E-001
       21.361001014593060   2.007306207251336E-001
       22.403001064085400   1.765554967635212E-001
       23.445001113577750   1.499199442373820E-001
       24.487001163070090   1.226219272382058E-001
       25.529001212562430   9.657809853941902E-002
       26.571001262054780   7.354265429523635E-002
       27.613001311547120   5.472947190256131E-002
       28.655001361039470   4.056239888268299E-002
       29.697001410531810   3.068672930755559E-002
       30.739001460024160   2.421769959790107E-002
       31.781001509516500   2.009338733188671E-002
       32.823001559008840   1.738552689767995E-002
       33.865001608501190   1.547741468778700E-002
       34.907001657993530   1.409197095500472E-002
       35.949001707485880   1.320735463034746E-002
       36.991001756978220   1.292001218501460E-002
       38.033001806470570   1.331160497159638E-002
       39.075001855962910   1.435946158221285E-002
       40.117001905455250   1.591052580834101E-002
       41.159001954947600   1.772029345619083E-002
       42.201002004439940   1.953988604933519E-002
       43.243002053932290   2.121622050461700E-002
       44.285002103424630   2.275893694645603E-002
       45.327002152916980   2.433464192225112E-002
       46.369002202409320   2.617947759524215E-002
       47.411002251901660   2.846458898215703E-002
       48.453002301394010   3.118121914905017E-002
       49.495002350886350   3.410959295533494E-002
       50.537002400378700   3.689446409380671E-002
       51.579002449871040   3.919184013356759E-002
       52.621002499363390   4.081110733189550E-002
       53.663002548855730   4.178002018725196E-002
       54.705002598348070   4.230479530274305E-002
       55.747002647840420   4.265536109208473E-002
       56.789002697332760   4.304130269740245E-002
       57.831002746825110   4.353880570547469E-002
       58.873002796317450   4.409190585973705E-002
       59.915002845809800   4.456940100968670E-002
       60.957002895302140   4.483642594455015E-002
       61.999002944794480   4.480447632348204E-002
       63.041002994286830   4.444564220269868E-002
       64.083003043779170   4.377900490392790E-002
       65.125003093271520   4.284738115622713E-002
       66.167003142763860   4.169917431471107E-002
       67.209003192256210   4.037989551176836E-002
       68.251003241748550   3.892987457503571E-002
       69.293003291240890   3.738340997688937E-002
       70.335003340733240   3.576828362105987E-002
       71.377003390225580   3.410794349132344E-002
       72.419003439717930   3.242819999022466E-002
       73.461003489210270   3.076679128525404E-002
       74.503003538702620   2.918102853559142E-002
       75.545003588194960   2.774832601983972E-002
       76.587003637687300   2.655667035315727E-002
       77.629003687179650   2.568575954138492E-002
       78.671003736671990   2.518373740093287E-002
       79.713003786164340   2.504810467447850E-002
       80.755003835656680   2.522030429734995E-002
       81.797003885149020   2.559936892362059E-002
       82.839003934641370   2.607131700903618E-002
       83.881003984133710   2.654211408344630E-002
       84.923004033626060   2.695894554547697E-002
       85.965004083118400   2.731029935196839E-002
       87.007004132610750   2.760728064844879E-002
       88.049004182103090   2.785959821657218E-002
       89.091004231595430   2.806262224931844E-002
       90.133004281087780   2.820426944424313E-002
       91.175004330580120   2.828643204653365E-002
       92.217004380072470   2.834417542989326E-002
       93.259004429564810   2.844516874321995E-002
       94.301004479057160   2.866347237115812E-002
       95.343004528549500   2.903916747596806E-002
       96.385004578041840   2.954705338478626E-002
       97.427004627534190   3.009520793359280E-002
       98.469004677026530   3.055791682906397E-002
       99.511004726518880   3.082699866682649E-002
      100.553004776011200   3.085400006002647E-002
      101.595004825503600   3.066090757832559E-002
      102.637004874995900   3.031575626074151E-002
      103.679004924488300   2.988959752308484E-002
      104.721004973980600   2.942000282965466E-002
      105.763005023472900   2.889926286348917E-002
      106.805005072965300   2.828906088438875E-002
      107.847005122457600   2.754910192385387E-002
      108.889005171950000   2.666290089289287E-002
      109.931005221442300   2.564948943479058E-002
      110.973005270934700   2.455908224735585E-002
      112.015005320427000   2.345758942737735E-002
      113.057005369919400   2.240719752242737E-002
      114.099005419411700   2.144967797272926E-002
      115.141005468904000   2.059768862424574E-002
      116.183005518396400   1.983738514292880E-002
      117.225005567888700   1.914229831439085E-002
      118.267005617381100   1.849384359072000E-002
      119.309005666873400   1.790007809639975E-002
      120.351005716365800   1.740386369528328E-002
      121.393005765858100   1.707516152243869E-002
      122.435005815350500   1.698828049991584E-002
      123.477005864842800   1.719109695297472E-002
      124.519005914335100   1.767746261606112E-002
      125.561005963827500   1.837461177252308E-002
      126.603006013319800   1.915318597217774E-002
      127.645006062812200   1.985885291111946E-002
      128.687006112304500   2.035462620259278E-002
      129.729006161796900   2.055723801862898E-002
      130.771006211289200   2.045322563940757E-002
      131.813006260781600   2.008990375035002E-002
      132.855006310273900   1.954764777640967E-002
      133.897006359766200   1.890680150304694E-002
      134.939006409258600   1.822237361895472E-002
      135.981006458750900   1.751412369276984E-002
      137.023006508243300   1.677235614015873E-002
      138.065006557735600   1.597394225634218E-002
      139.107006607228000   1.510045214502675E-002
      140.149006656720300   1.415111073896783E-002
      141.191006706212700   1.314677442875563E-002
      142.233006755705000   1.212547871010321E-002
      143.275006805197300   1.113326360649187E-002
      144.317006854689700   1.021470159897507E-002
      145.359006904182000   9.406120147519452E-003
      146.401006953674400   8.732354803525962E-003
      147.443007003166700   8.206404186283340E-003
      148.485007052659100   7.831040785787769E-003
      149.527007102151400   7.601701792274894E-003
      150.569007151643800   7.510001201891504E-003
      151.611007201136100   7.546704971467952E-003
      152.653007250628400   7.702586887773095E-003
      153.695007300120800   7.966122380660067E-003
      154.737007349613100   8.318694515006386E-003
      155.779007399105500   8.729929827593186E-003
      156.821007448597800   9.156449364776791E-003
      157.863007498090200   9.545974643600170E-003
      158.905007547582500   9.846152671357184E-003
      159.947007597074800   1.001530739335975E-002
      160.989007646567200   1.003166220523012E-002
      162.031007696059500   9.898212156715228E-003
      163.073007745551900   9.641572993515691E-003
      164.115007795044200   9.304492630147701E-003
      165.157007844536600   8.933514935269218E-003
      166.199007894028900   8.565389798991982E-003
      167.241007943521300   8.217137262755346E-003
      168.283007993013600   7.883888183494479E-003
      169.325008042505900   7.545561354137800E-003
      170.367008091998300   7.179566290894491E-003
      171.409008141490600   6.774234585774973E-003
      172.451008190983000   6.337936569686766E-003
      173.493008240475300   5.901453976286428E-003
      174.535008289967700   5.514405612155480E-003
      175.577008339460000   5.238466001331679E-003
      176.619008388952400   5.139899925444219E-003
      177.661008438444700   5.282131287621026E-003
      178.703008487937000   5.717259330097453E-003
      179.745008537429400   6.475245453845350E-003
      180.787008586921700   7.551515111819101E-003
      181.829008636414100   8.896908935424058E-003
      182.871008685906400   1.041589778300848E-002
      183.913008735398800   1.197746527611102E-002
      184.955008784891100   1.343782637208590E-002
      185.997008834383500   1.466796009117506E-002
      187.039008883875800   1.557610313673887E-002
      188.081008933368100   1.611833440394193E-002
      189.123008982860500   1.629719192009211E-002
      190.165009032352800   1.615361481678552E-002
      191.207009081845200   1.575738014013613E-002
      192.249009131337500   1.519676270713648E-002
      193.291009180829900   1.456473662709415E-002
      194.333009230322200   1.394088130626209E-002
      195.375009279814600   1.337394067938370E-002
      196.417009329306900   1.287396660747908E-002
      197.459009378799200   1.242047490231478E-002
      198.501009428291600   1.198480737029324E-002
      199.543009477783900   1.155638183703581E-002
      200.585009527276300   1.115937500624114E-002
      201.627009576768600   1.085055890807921E-002
      202.669009626261000   1.069814815152759E-002
      203.711009675753300   1.075097595611391E-002
      204.753009725245700   1.101262433102769E-002
      205.795009774738000   1.143372316922040E-002
      206.837009824230300   1.192789612011827E-002
      207.879009873722700   1.240621959816974E-002
      208.921009923215000   1.281664195840970E-002
      209.963009972707400   1.317254323545120E-002
      211.005010022199700   1.355910392110465E-002
      212.047010071692100   1.411465738822817E-002
      213.089010121184400   1.499284975125599E-002
      214.131010170676800   1.631754110969574E-002
      215.173010220169100   1.814497750874000E-002
      216.215010269661400   2.044638551149530E-002
      217.257010319153800   2.311797210273654E-002
      218.299010368646100   2.601436483067879E-002
      219.341010418138500   2.898920762623559E-002
      220.383010467630800   3.192039437643835E-002
      221.425010517123200   3.470461888676845E-002
      222.467010566615500   3.722633272260579E-002
      223.509010616107800   3.932808738786573E-002
      224.551010665600200   4.081522206509464E-002
      225.593010715092500   4.150884285155433E-002
      226.635010764584900   4.132668763185578E-002
      227.677010814077200   4.034594207236214E-002
      228.719010863569600   3.880597212477997E-002
      229.761010913061900   3.704210351495453E-002
      230.803010962554300   3.538200611265629E-002
      231.845011012046600   3.405652507977364E-002
      232.887011061538900   3.316435282694573E-002
      233.929011111031300   3.269512127849793E-002
      234.971011160523600   3.258287174745463E-002
      236.013011210016000   3.275247354399404E-002
      237.055011259508300   3.313892086987321E-002
      238.097011309000700   3.368790275335976E-002
      239.139011358493000   3.436237950281507E-002
      240.181011407985400   3.517064618349557E-002
      241.223011457477700   3.620386382359644E-002
      242.265011506970000   3.764881090475355E-002
      243.307011556462400   3.974589271037299E-002
      244.349011605954700   4.269408479104499E-002
      245.391011655447100   4.654187638463288E-002
      246.433011704939400   5.111918382072118E-002
      247.475011754431800   5.604826727896412E-002
      248.517011803924100   6.083408459940226E-002
      249.559011853416500   6.500027401945428E-002
      250.601011902908800   6.822311793420667E-002
      251.643011952401100   7.042334250949864E-002
      252.685012001893500   7.179477647351135E-002
      253.727012051385800   7.277009389609655E-002
      254.769012100878200   7.394204609005346E-002
      255.811012150370500   7.597039936441428E-002
      256.853012199862900   7.950571036493095E-002
      257.895012249355200   8.514815411650197E-002
      258.937012298847600   9.343751193339782E-002
      259.979012348339900   1.048530051607963E-001
      261.021012397832200   1.198041913571849E-001
      262.063012447324600   1.386186289687799E-001
      263.105012496816900   1.615574434261211E-001
      264.147012546309300   1.888817236105768E-001
      265.189012595801600   2.209340850942226E-001
      266.231012645294000   2.581235604668715E-001
      267.273012694786300   3.006861112924555E-001
      268.315012744278700   3.482027605566275E-001
      269.357012793771000   3.990685084628797E-001
      270.399012843263300   4.502811341689748E-001
      271.441012892755700   4.978886130092064E-001
      272.483012942248000   5.381335165297144E-001
      273.525012991740400   5.688978717790093E-001
      274.567013041232700   5.907604610585251E-001
      275.609013090725100   6.070621901078241E-001
      276.651013140217400   6.228366770323278E-001
      277.693013189709800   6.430491057408686E-001
      278.735013239202100   6.709459716201172E-001
      279.777013288694400   7.072334190474423E-001
      280.819013338186800   7.503247535765857E-001
      281.861013387679100   7.973147658992406E-001
      282.903013437171500   8.449958682735134E-001
      283.945013486663800   8.903296712109259E-001
      284.987013536156200   9.302583460524725E-001
      286.029013585648500   9.612721341908711E-001
      287.071013635140800   9.793755595970272E-001
      288.113013684633200   9.808386700250932E-001
      289.155013734125500   9.635365442323898E-001
      290.197013783617900   9.281702440162760E-001
      291.239013833110200   8.785925408048056E-001
      292.281013882602600   8.209019360055661E-001
      293.323013932094900   7.616424751901609E-001
      294.365013981587300   7.059310233004401E-001
      295.407014031079600   6.563434342041098E-001
      296.449014080571900   6.129489985028468E-001
      297.491014130064300   5.742750877391638E-001
      298.533014179556600   5.385646961855333E-001
      299.575014229049000   5.046674230307083E-001
      300.617014278541300   4.722383649740170E-001
      301.659014328033700   4.413693593461730E-001
      302.701014377526000   4.120671979123516E-001
      303.743014427018400   3.839808850832404E-001
      304.785014476510700   3.565246206080559E-001
      305.827014526003000   3.292446300212421E-001
      306.869014575495400   3.021326949952017E-001
      307.911014624987700   2.756657873867696E-001
      308.953014674480100   2.505626317351836E-001
      309.995014723972400   2.274317482442724E-001
      311.037014773464800   2.065261537822262E-001
      312.079014822957100   1.877210232106472E-001
      313.121014872449500   1.706872570282104E-001
      314.163014921941800   1.551429199854412E-001
      315.205014971434100   1.410575075879283E-001
      316.247015020926500   1.287310601870446E-001
      317.289015070418800   1.187281512997171E-001
      318.331015119911200   1.116941480677964E-001
      319.373015169403500   1.081150468207628E-001
      320.415015218895900   1.081005382350380E-001
      321.457015268388200   1.112661286689942E-001
      322.499015317880600   1.167612075909076E-001
      323.541015367372900   1.234426280865688E-001
      324.583015416865200   1.301416669222817E-001
      325.625015466357600   1.359335662580399E-001
      326.667015515849900   1.403115232687339E-001
      327.709015565342300   1.432025941536827E-001
      328.751015614834600   1.448329699969303E-001
      329.793015664327000   1.455206094791230E-001
      330.835015713819300   1.455023749542375E-001
      331.877015763311700   1.448719127375206E-001
      332.919015812804000   1.436349865466790E-001
      333.961015862296300   1.418264503335381E-001
      335.003015911788700   1.396119328360431E-001
      336.045015961281000   1.373184809634317E-001
      337.087016010773400   1.353779280888286E-001
      338.129016060265700   1.342016078652436E-001
      339.171016109758100   1.340280680487190E-001
      340.213016159250400   1.347983301825731E-001
      341.255016208742800   1.361126512735586E-001
      342.297016258235100   1.373001756336538E-001
      343.339016307727400   1.375889380032101E-001
      344.381016357219800   1.363176164123391E-001
      345.423016406712100   1.331098544801171E-001
      346.465016456204500   1.279508959034255E-001
      347.507016505696800   1.211529897190419E-001
      348.549016555189200   1.132421003456128E-001
      349.591016604681500   1.048194866774115E-001
      350.633016654173800   9.644225770774334E-002
      351.675016703666200   8.854074415247525E-002
      352.717016753158500   8.136872034337506E-002
      353.759016802650900   7.497919375342377E-002
      354.801016852143200   6.923071681558218E-002
      355.843016901635600   6.383928034856151E-002
      356.885016951127900   5.848126344380342E-002
      357.927017000620300   5.292368485581677E-002
      358.969017050112600   4.713059287236548E-002
      360.011017099604900   4.129491369164069E-002
      361.053017149097300   3.577965946518843E-002
      362.095017198589600   3.099890477999948E-002
      363.137017248082000   2.729464928101963E-002
      364.179017297574300   2.485567190134130E-002
      365.221017347066700   2.369306389409101E-002
      366.263017396559000   2.366172719658003E-002
      367.305017446051400   2.451197262462318E-002
      368.347017495543700   2.596158672887857E-002
      369.389017545036000   2.777873176625978E-002
      370.431017594528400   2.985458348760763E-002
      371.473017644020700   3.223453340000405E-002
      372.515017693513100   3.508488300661308E-002
      373.557017743005400   3.860096806046123E-002
      374.599017792497800   4.289685793755127E-002
      375.641017841990100   4.793377078788601E-002
      376.683017891482500   5.353108430561078E-002
      377.725017940974800   5.946468569560146E-002
      378.767017990467100   6.561140846193836E-002
      379.809018039959500   7.206960262114519E-002
      380.851018089451800   7.919175248416990E-002
      381.893018138944200   8.750500878471969E-002
      382.935018188436500   9.754834881798473E-002
      383.977018237928900   1.096903112770319E-001
      385.019018287421200   1.239901986230743E-001
      386.061018336913600   1.401351603947795E-001
      387.103018386405900   1.574506945225647E-001
      388.145018435898200   1.749644528566040E-001
      389.187018485390600   1.915063283914787E-001
      390.229018534882900   2.058404334333418E-001
      391.271018584375300   2.168329021506436E-001
      392.313018633867600   2.236538804654301E-001
      393.355018683360000   2.259890382390323E-001
      394.397018732852300   2.242023032620971E-001
      395.439018782344700   2.193686339284112E-001
      396.481018831837000   2.131107068392927E-001
      397.523018881329300   2.072372673838762E-001
      398.565018930821700   2.032718201564466E-001
      399.607018980314000   2.020318615896288E-001
      400.649019029806400   2.034271354989997E-001
      401.691019079298700   2.065745957419862E-001
      402.733019128791100   2.101996047539327E-001
      403.775019178283400   2.131609157891257E-001
      404.817019227775800   2.148678175712283E-001
      405.859019277268100   2.153989085579165E-001
      406.901019326760400   2.152765660548808E-001
      407.943019376252800   2.150284249608869E-001
      408.985019425745100   2.147774456815739E-001
      410.027019475237500   2.140806731450216E-001
      411.069019524729800   2.120982470786408E-001
      412.111019574222200   2.080020529127209E-001
      413.153019623714500   2.014224241130101E-001
      414.195019673206800   1.927287125662248E-001
      415.237019722699200   1.830266286804871E-001
      416.279019772191500   1.738756104904121E-001
      417.321019821683900   1.668316860072312E-001
      418.363019871176200   1.629788927748483E-001
      419.405019920668600   1.626151868494042E-001
      420.447019970160900   1.652028354376189E-001
      421.489020019653300   1.695905421162924E-001
      422.531020069145600   1.744076152529810E-001
      423.573020118637900   1.784771183618596E-001
      424.615020168130300   1.811215651171114E-001
      425.657020217622600   1.823068178096888E-001
      426.699020267115000   1.826224701935993E-001
      427.741020316607300   1.831024075578383E-001
      428.783020366099700   1.848866825787988E-001
      429.825020415592000   1.887726437888800E-001
      430.867020465084400   1.947966561490784E-001
      431.909020514576700   2.020479493621850E-001
      432.951020564069000   2.088583746258791E-001
      433.993020613561400   2.133372756979950E-001
      435.035020663053700   2.140318454182719E-001
      436.077020712546100   2.104167342709238E-001
      437.119020762038400   2.030045504104779E-001
      438.161020811530800   1.930646073603972E-001
      439.203020861023100   1.821225743511450E-001
      440.245020910515500   1.714893686951645E-001
      441.287020960007800   1.620086744821524E-001
      442.329021009500100   1.540713428691996E-001
      443.371021058992500   1.478110174552291E-001
      444.413021108484800   1.433373626747116E-001
      445.455021157977200   1.408901636820820E-001
      446.497021207469500   1.408649453252428E-001
      447.539021256961900   1.437168223095366E-001
      448.581021306454200   1.497773469999850E-001
      449.623021355946600   1.590372108796543E-001
      450.665021405438900   1.709714835307185E-001
      451.707021454931200   1.844983989069039E-001
      452.749021504423600   1.981344703458756E-001
      453.791021553915900   2.103278507550694E-001
      454.833021603408300   2.198557508310684E-001
      455.875021652900600   2.261250924331724E-001
      456.917021702393000   2.292588959059773E-001
      457.959021751885300   2.299613544615240E-001
      459.001021801377700   2.292574789502677E-001
      460.043021850870000   2.282310633502857E-001
      461.085021900362300   2.278337893422396E-001
      462.127021949854700   2.287679772425258E-001
      463.169021999347000   2.314181965985656E-001
      464.211022048839400   2.358291237384939E-001
      465.253022098331700   2.417527743710262E-001
      466.295022147824100   2.487770099766693E-001
      467.337022197316400   2.565069453179059E-001
      468.379022246808700   2.647401419665289E-001
      469.421022296301100   2.735760578438317E-001
      470.463022345793400   2.834177727282234E-001
      471.505022395285800   2.948448721476963E-001
      472.547022444778100   3.083696961567074E-001
      473.589022494270500   3.241470247005263E-001
      474.631022543762800   3.417647877929470E-001
      475.673022593255200   3.602431280678046E-001
      476.715022642747500   3.782808960844145E-001
      477.757022692239800   3.946583525869126E-001
      478.799022741732200   4.086263021836825E-001
      479.841022791224500   4.201410343337435E-001
      480.883022840716900   4.299065780506966E-001
      481.925022890209200   4.392732930025652E-001
      482.967022939701600   4.500600065837671E-001
      484.009022989193900   4.643356453018100E-001
      485.051023038686300   4.841721023099750E-001
      486.093023088178600   5.113918123792636E-001
      487.135023137670900   5.473626744419690E-001
      488.177023187163300   5.929062093214673E-001
      489.219023236655600   6.483688483604297E-001
      490.261023286148000   7.138673143978883E-001
      491.303023335640300   7.896619884058763E-001
      492.345023385132700   8.765346440313265E-001
      493.387023434625000   9.759575634471374E-001
      494.429023484117400        1.089777893590542
      495.471023533609700        1.219171332316540
      496.513023583102000        1.362817888893641
      497.555023632594400        1.514655232199904
      498.597023682086700        1.662087350724335
      499.639023731579100        1.785892679175531
      500.681023781071400        1.862884498756308
      501.723023830563800        1.871381562367651
      502.765023880056100        1.798017471968108
      503.807023929548500        1.643201696430534
      504.849023979040800        1.422591912609158
      505.891024028533100        1.163525525314076
      506.933024078025500   8.977054302956394E-001
      507.975024127517800   6.531462125027231E-001
      509.017024177010200   4.484562221870689E-001
      510.059024226502500   2.910590605132317E-001
      511.101024275994900   1.789893913053480E-001
      512.143024325487200   1.045833212865857E-001
      513.185024374979600   5.821711441903450E-002
      514.227024424471900   3.093603591375805E-002
      515.269024473964200   1.570552270115283E-002
      516.311024523456600   7.612029972627772E-003
      517.353024572948900   3.514355868735418E-003
      518.395024622441300   1.540374761956198E-003
      519.437024671933600   6.384244414744575E-004
      520.479024721426000   2.491813086697241E-004
      521.521024770918300   9.124007293154505E-005
      522.563024820410700   3.123751720212912E-005
      523.605024869903000   9.972213262616578E-006
      524.647024919395300   2.961910652510993E-006
      525.689024968887700   8.170837965254209E-007
      526.731025018380000   2.090717305873916E-007
      527.773025067872400   4.956935302922185E-008
      528.815025117364700   1.088128250262625E-008
      529.857025166857100   2.210217537573112E-009
      530.899025216349400   4.152190323698185E-010
      531.941025265841700   7.211923183897766E-011
      532.983025315334100   1.157803349723788E-011
      534.025025364826400   1.717640531551669E-012
      535.067025414318800   2.354327672868126E-013
      536.109025463811100   2.981103035173609E-014
      537.151025513303500   3.486682112283186E-015
      538.193025562795800   3.766446918971464E-016
      539.235025612288200   3.757521126303680E-017
      540.277025661780500   3.461726205678863E-018
      541.319025711272800   2.944976946585151E-019
      542.361025760765200   2.313390235434597E-020
      543.403025810257500   1.677940998874970E-021
      544.445025859749900   1.123701006165073E-022
      545.487025909242200   6.947983397788059E-024
      546.529025958734600   3.966341378223795E-025
      547.571026008226900   2.090429973674291E-026
      548.613026057719300   1.017155947813927E-027
      549.655026107211600   4.569188801843762E-029
      550.697026156703900   1.894892117462075E-030
      551.739026206196300   7.254686949137805E-032
      552.781026255688600   2.564113978879801E-033
      553.823026305181000   8.366362644953917E-035
      554.865026354673300   2.520075239833602E-036
      555.907026404165700   7.007530269142684E-038
      556.949026453658000   1.798824018807667E-039
      557.991026503150400   4.262677603366401E-041
      559.033026552642700   9.324908640395832E-043
      560.075026602135000   1.883100038899699E-044
      561.117026651627400   3.510488364588646E-046
      562.159026701119700   6.041236470515877E-048
      563.201026750612100   9.597259919138241E-050
      564.243026800104400   1.407443308192150E-051
      565.285026849596800   1.905355527508580E-053
      566.327026899089100   2.381123540306359E-055
      567.369026948581500   2.746932852088736E-057
      568.411026998073800   2.925323269078702E-059
      569.453027047566100   2.875801856725787E-061
      570.495027097058500   2.609774286332699E-063
      571.537027146550800   2.186278592545937E-065
      572.579027196043200   1.690699170317313E-067
