   5.210000247461721E-001   4.294105139385816E-002
        1.563000074238516   6.135686400480710E-002
        2.605000123730861   8.171138573971232E-002
        3.647000173223205   1.020812048254239E-001
        4.689000222715549   1.208701632993832E-001
        5.731000272207893   1.376918278474524E-001
        6.773000321700238   1.537788588060983E-001
        7.815000371192582   1.715028478251739E-001
        8.857000420684926   1.930443691748079E-001
        9.899000470177271   2.188003028432243E-001
       10.941000519669620   2.463954628695565E-001
       11.983000569161960   2.709508753424357E-001
       13.025000618654300   2.866335585937067E-001
       14.067000668146650   2.888272742927985E-001
       15.109000717638990   2.759215301369568E-001
       16.151000767131340   2.499098434802483E-001
       17.193000816623680   2.155918008799826E-001
       18.235000866116030   1.788360376926848E-001
       19.277000915608370   1.447298813055582E-001
       20.319000965100710   1.163629727337754E-001
       21.361001014593060   9.457568439034884E-002
       22.403001064085400   7.851995664157853E-002
       23.445001113577750   6.658368473037686E-002
       24.487001163070090   5.721716938386319E-002
       25.529001212562430   4.939503681745253E-002
       26.571001262054780   4.268931691069114E-002
       27.613001311547120   3.708938435531425E-002
       28.655001361039470   3.274274732044597E-002
       29.697001410531810   2.974358540325825E-002
       30.739001460024160   2.802367774509352E-002
       31.781001509516500   2.734453104592642E-002
       32.823001559008840   2.736139214481725E-002
       33.865001608501190   2.772138584891363E-002
       34.907001657993530   2.815829239101419E-002
       35.949001707485880   2.855143621622196E-002
       36.991001756978220   2.892854558017960E-002
       38.033001806470570   2.941428568152073E-002
       39.075001855962910   3.015123368286698E-002
       40.117001905455250   3.123432512608247E-002
       41.159001954947600   3.269143952906081E-002
       42.201002004439940   3.451362200246808E-002
       43.243002053932290   3.670571233549904E-002
       44.285002103424630   3.931366780580713E-002
       45.327002152916980   4.239950627978910E-002
       46.369002202409320   4.597042837382325E-002
       47.411002251901660   4.990301490012158E-002
       48.453002301394010   5.391405553959401E-002
       49.495002350886350   5.760822025992833E-002
       50.537002400378700   6.059088532119841E-002
       51.579002449871040   6.259670452822393E-002
       52.621002499363390   6.357363546499134E-002
       53.663002548855730   6.368418973133971E-002
       54.705002598348070   6.322680022399657E-002
       55.747002647840420   6.251661802264992E-002
       56.789002697332760   6.177866228734488E-002
       57.831002746825110   6.109406194510851E-002
       58.873002796317450   6.041242023452350E-002
       59.915002845809800   5.961474593379405E-002
       60.957002895302140   5.859305762648612E-002
       61.999002944794480   5.730966494956656E-002
       63.041002994286830   5.581107597925964E-002
       64.083003043779170   5.419397224418161E-002
       65.125003093271520   5.254480337806310E-002
       66.167003142763860   5.088859040303154E-002
       67.209003192256210   4.917768681948222E-002
       68.251003241748550   4.732853911838061E-002
       69.293003291240890   4.528648507679234E-002
       70.335003340733240   4.308240103533817E-002
       71.377003390225580   4.085038430386846E-002
       72.419003439717930   3.879807954942072E-002
       73.461003489210270   3.714546806576144E-002
       74.503003538702620   3.605960376160226E-002
       75.545003588194960   3.560841491736898E-002
       76.587003637687300   3.574394678673319E-002
       77.629003687179650   3.631462184456798E-002
       78.671003736671990   3.710148760549611E-002
       79.713003786164340   3.787180067670288E-002
       80.755003835656680   3.843982906093238E-002
       81.797003885149020   3.871916555947096E-002
       82.839003934641370   3.874794165756643E-002
       83.881003984133710   3.867324788151752E-002
       84.923004033626060   3.869433769564988E-002
       85.965004083118400   3.898084431314046E-002
       87.007004132610750   3.959475198799584E-002
       88.049004182103090   4.044701363596671E-002
       89.091004231595430   4.130908155747527E-002
       90.133004281087780   4.187876888327587E-002
       91.175004330580120   4.187655488917152E-002
       92.217004380072470   4.113387095235780E-002
       93.259004429564810   3.963824608229943E-002
       94.301004479057160   3.752151849676671E-002
       95.343004528549500   3.500494486616549E-002
       96.385004578041840   3.233224337072125E-002
       97.427004627534190   2.971905701117362E-002
       98.469004677026530   2.733024117318884E-002
       99.511004726518880   2.527916093570575E-002
      100.553004776011200   2.363653502652004E-002
      101.595004825503600   2.243964301913273E-002
      102.637004874995900   2.169809751232167E-002
      103.679004924488300   2.139465089992406E-002
      104.721004973980600   2.148030550311093E-002
      105.763005023472900   2.186620329422010E-002
      106.805005072965300   2.241989959017826E-002
      107.847005122457600   2.297544321968671E-002
      108.889005171950000   2.336116245975111E-002
      109.931005221442300   2.343852634505512E-002
      110.973005270934700   2.313726535919056E-002
      112.015005320427000   2.247214661957656E-002
      113.057005369919400   2.153524024513498E-002
      114.099005419411700   2.046849005533928E-002
      115.141005468904000   1.942847747491534E-002
      116.183005518396400   1.855553351303172E-002
      117.225005567888700   1.795426472740551E-002
      118.267005617381100   1.768596722859211E-002
      119.309005666873400   1.776900103081800E-002
      120.351005716365800   1.818276682865777E-002
      121.393005765858100   1.887365852471428E-002
      122.435005815350500   1.976437355736577E-002
      123.477005864842800   2.076814850640650E-002
      124.519005914335100   2.180599672351688E-002
      125.561005963827500   2.282045821791092E-002
      126.603006013319800   2.377817141840722E-002
      127.645006062812200   2.465829545367943E-002
      128.687006112304500   2.543232369145529E-002
      129.729006161796900   2.604732336291693E-002
      130.771006211289200   2.642404034633055E-002
      131.813006260781600   2.647344538157892E-002
      132.855006310273900   2.612511761820971E-002
      133.897006359766200   2.535465330552596E-002
      134.939006409258600   2.419825274916100E-002
      135.981006458750900   2.274926422662601E-002
      137.023006508243300   2.113931810009831E-002
      138.065006557735600   1.951164924468038E-002
      139.107006607228000   1.799476057654341E-002
      140.149006656720300   1.668201944890721E-002
      141.191006706212700   1.561968859768896E-002
      142.233006755705000   1.480411512088680E-002
      143.275006805197300   1.418827401551947E-002
      144.317006854689700   1.369711434266754E-002
      145.359006904182000   1.324900305245140E-002
      146.401006953674400   1.277759942447702E-002
      147.443007003166700   1.224698596453980E-002
      148.485007052659100   1.165490252555662E-002
      149.527007102151400   1.102421944191054E-002
      150.569007151643800   1.038835686046517E-002
      151.611007201136100   9.778556988458592E-003
      152.653007250628400   9.218338358386138E-003
      153.695007300120800   8.725129374974867E-003
      154.737007349613100   8.314780924074493E-003
      155.779007399105500   8.003955230111538E-003
      156.821007448597800   7.807922283747728E-003
      157.863007498090200   7.734655170243829E-003
      158.905007547582500   7.778136851336517E-003
      159.947007597074800   7.914054275628999E-003
      160.989007646567200   8.100395827989973E-003
      162.031007696059500   8.284401509602352E-003
      163.073007745551900   8.415395432354134E-003
      164.115007795044200   8.459992289656044E-003
      165.157007844536600   8.413399680089152E-003
      166.199007894028900   8.300624416711908E-003
      167.241007943521300   8.165604952045198E-003
      168.283007993013600   8.052618457811890E-003
      169.325008042505900   7.988552383120450E-003
      170.367008091998300   7.973873351138758E-003
      171.409008141490600   7.985167289350699E-003
      172.451008190983000   7.986522882670735E-003
      173.493008240475300   7.943990922507419E-003
      174.535008289967700   7.837567152889590E-003
      175.577008339460000   7.667226360863535E-003
      176.619008388952400   7.451892050658684E-003
      177.661008438444700   7.222263636586937E-003
      178.703008487937000   7.010207499059399E-003
      179.745008537429400   6.838730754508556E-003
      180.787008586921700   6.716633377287180E-003
      181.829008636414100   6.640178699629287E-003
      182.871008685906400   6.600957480190572E-003
      183.913008735398800   6.596045436778582E-003
      184.955008784891100   6.635291967468899E-003
      185.997008834383500   6.741985954338239E-003
      187.039008883875800   6.946600585323657E-003
      188.081008933368100   7.276913934477209E-003
      189.123008982860500   7.749344321141499E-003
      190.165009032352800   8.364818534668155E-003
      191.207009081845200   9.109060407734205E-003
      192.249009131337500   9.954575139556906E-003
      193.291009180829900   1.086196162923183E-002
      194.333009230322200   1.178107909824902E-002
      195.375009279814600   1.265517212907136E-002
      196.417009329306900   1.343049149861404E-002
      197.459009378799200   1.407002059856279E-002
      198.501009428291600   1.456543585639497E-002
      199.543009477783900   1.494015931539472E-002
      200.585009527276300   1.524017347793213E-002
      201.627009576768600   1.551648553982031E-002
      202.669009626261000   1.580910334103988E-002
      203.711009675753300   1.614226103682707E-002
      204.753009725245700   1.653307109359795E-002
      205.795009774738000   1.700514993137227E-002
      206.837009824230300   1.759317340878186E-002
      207.879009873722700   1.832958629786404E-002
      208.921009923215000   1.921859778011188E-002
      209.963009972707400   2.021504626196483E-002
      211.005010022199700   2.122613673516994E-002
      212.047010071692100   2.214046704712004E-002
      213.089010121184400   2.287041179460309E-002
      214.131010170676800   2.338443782985592E-002
      215.173010220169100   2.371241988110752E-002
      216.215010269661400   2.392459608315831E-002
      217.257010319153800   2.410073882812104E-002
      218.299010368646100   2.430983242955558E-002
      219.341010418138500   2.461072892732164E-002
      220.383010467630800   2.506835612397831E-002
      221.425010517123200   2.576835856422536E-002
      222.467010566615500   2.681259233457192E-002
      223.509010616107800   2.828929223506115E-002
      224.551010665600200   3.022891949409734E-002
      225.593010715092500   3.256935751478626E-002
      226.635010764584900   3.515325057729296E-002
      227.677010814077200   3.776484845080771E-002
      228.719010863569600   4.019290040245791E-002
      229.761010913061900   4.229339906764957E-002
      230.803010962554300   4.402884535198495E-002
      231.845011012046600   4.547522749992506E-002
      232.887011061538900   4.680264915388437E-002
      233.929011111031300   4.824114139792428E-002
      234.971011160523600   5.003905690469767E-002
      236.013011210016000   5.241498040497976E-002
      237.055011259508300   5.550404419826570E-002
      238.097011309000700   5.930831110607352E-002
      239.139011358493000   6.367129613108961E-002
      240.181011407985400   6.829675574233046E-002
      241.223011457477700   7.281547880780583E-002
      242.265011506970000   7.687846422487628E-002
      243.307011556462400   8.023788360371628E-002
      244.349011605954700   8.278214530181355E-002
      245.391011655447100   8.451646119388939E-002
      246.433011704939400   8.550951008425253E-002
      247.475011754431800   8.584183930639831E-002
      248.517011803924100   8.558485927123792E-002
      249.559011853416500   8.481745272803265E-002
      250.601011902908800   8.366517048471238E-002
      251.643011952401100   8.233669861627496E-002
      252.685012001893500   8.113594769244818E-002
      253.727012051385800   8.043984184658229E-002
      254.769012100878200   8.064499810218320E-002
      255.811012150370500   8.209829185488349E-002
      256.853012199862900   8.503596089131962E-002
      257.895012249355200   8.955982954949050E-002
      258.937012298847600   9.567161650970545E-002
      259.979012348339900   1.033652922735072E-001
      261.021012397832200   1.127498047624733E-001
      262.063012447324600   1.241524166115633E-001
      263.105012496816900   1.381465796293540E-001
      264.147012546309300   1.554619128784760E-001
      265.189012595801600   1.767674286683936E-001
      266.231012645294000   2.023693188407525E-001
      267.273012694786300   2.319196048343910E-001
      268.315012744278700   2.642667796522708E-001
      269.357012793771000   2.975639575143280E-001
      270.399012843263300   3.296705706130307E-001
      271.441012892755700   3.587627008760468E-001
      272.483012942248000   3.839579448045081E-001
      273.525012991740400   4.057180660722327E-001
      274.567013041232700   4.258423776590515E-001
      275.609013090725100   4.469938285194047E-001
      276.651013140217400   4.718659044144769E-001
      277.693013189709800   5.022433802896442E-001
      278.735013239202100   5.382732583105232E-001
      279.777013288694400   5.782064612286145E-001
      280.819013338186800   6.187114537422294E-001
      281.861013387679100   6.556680395495369E-001
      282.903013437171500   6.852040960204143E-001
      283.945013486663800   7.046789059527492E-001
      284.987013536156200   7.133352021361842E-001
      286.029013585648500   7.124223305994669E-001
      287.071013635140800   7.047356214002294E-001
      288.113013684633200   6.937058418514313E-001
      289.155013734125500   6.823365396285664E-001
      290.197013783617900   6.723337610468856E-001
      291.239013833110200   6.636753300688937E-001
      292.281013882602600   6.546995369234560E-001
      293.323013932094900   6.426566904308871E-001
      294.365013981587300   6.245887760741751E-001
      295.407014031079600   5.983332082215817E-001
      296.449014080571900   5.633613048250424E-001
      297.491014130064300   5.211321111649281E-001
      298.533014179556600   4.747723289668220E-001
      299.575014229049000   4.281806222702308E-001
      300.617014278541300   3.849371331474124E-001
      301.659014328033700   3.474735202833638E-001
      302.701014377526000   3.167656594277565E-001
      303.743014427018400   2.924983253171136E-001
      304.785014476510700   2.734489246910153E-001
      305.827014526003000   2.578621950999055E-001
      306.869014575495400   2.437585079718518E-001
      307.911014624987700   2.292505843228684E-001
      308.953014674480100   2.129217171238521E-001
      309.995014723972400   1.941877585497700E-001
      311.037014773464800   1.734701941595528E-001
      312.079014822957100   1.520531278962554E-001
      313.121014872449500   1.316570734987452E-001
      314.163014921941800   1.139135289293755E-001
      315.205014971434100   9.995717654465067E-002
      316.247015020926500   9.025786725841346E-002
      317.289015070418800   8.467485181927358E-002
      318.331015119911200   8.262707659817759E-002
      319.373015169403500   8.327327873789560E-002
      320.415015218895900   8.565193866851086E-002
      321.457015268388200   8.878527510060078E-002
      322.499015317880600   9.176879591501279E-002
      323.541015367372900   9.385498326069001E-002
      324.583015416865200   9.452377424333358E-002
      325.625015466357600   9.353057541829671E-002
      326.667015515849900   9.092920238486349E-002
      327.709015565342300   8.706799143870508E-002
      328.751015614834600   8.254928493661538E-002
      329.793015664327000   7.813818203109897E-002
      330.835015713819300   7.461958325230103E-002
      331.877015763311700   7.263117167328156E-002
      332.919015812804000   7.252515790311390E-002
      333.961015862296300   7.431216906218950E-002
      335.003015911788700   7.770956833908117E-002
      336.045015961281000   8.226687412543618E-002
      337.087016010773400   8.749989918769593E-002
      338.129016060265700   9.296002826722609E-002
      339.171016109758100   9.820637726996868E-002
      340.213016159250400   1.027180034233475E-001
      341.255016208742800   1.058370856271204E-001
      342.297016258235100   1.068291596863361E-001
      343.339016307727400   1.050757310962504E-001
      344.381016357219800   1.003196666677460E-001
      345.423016406712100   9.283013535908979E-002
      346.465016456204500   8.338251004498895E-002
      347.507016505696800   7.304441599660380E-002
      348.549016555189200   6.286173740536341E-002
      349.591016604681500   5.358568866344607E-002
      350.633016654173800   4.555055109311831E-002
      351.675016703666200   3.872678266881841E-002
      352.717016753158500   3.288855653345881E-002
      353.759016802650900   2.779403932150298E-002
      354.801016852143200   2.329505825191403E-002
      355.843016901635600   1.934983485495294E-002
      356.885016951127900   1.596987540622471E-002
      357.927017000620300   1.315824080293467E-002
      358.969017050112600   1.088366109657208E-002
      360.011017099604900   9.100204039685369E-003
      361.053017149097300   7.791907912853681E-003
      362.095017198589600   7.013311826640729E-003
      363.137017248082000   6.909059355084880E-003
      364.179017297574300   7.713807002807668E-003
      365.221017347066700   9.741785373231371E-003
      366.263017396559000   1.336812176908245E-002
      367.305017446051400   1.898930179321133E-002
      368.347017495543700   2.694354394922239E-002
      369.389017545036000   3.738619709687290E-002
      370.431017594528400   5.014977120001636E-002
      371.473017644020700   6.465395399056305E-002
      372.515017693513100   7.993884750474478E-002
      373.557017743005400   9.485543221126788E-002
      374.599017792497800   1.083712129317170E-001
      375.641017841990100   1.198772448007810E-001
      376.683017891482500   1.293633579047932E-001
      377.725017940974800   1.373821462393035E-001
      378.767017990467100   1.448244920844855E-001
      379.809018039959500   1.526232357245909E-001
      380.851018089451800   1.615332123109214E-001
      381.893018138944200   1.720867940884320E-001
      382.935018188436500   1.847215949408757E-001
      383.977018237928900   1.999788260826724E-001
      385.019018287421200   2.186327997945503E-001
      386.061018336913600   2.416550381902390E-001
      387.103018386405900   2.700116038352310E-001
      388.145018435898200   3.043794088851753E-001
      389.187018485390600   3.448966656121070E-001
      390.229018534882900   3.910288037317524E-001
      391.271018584375300   4.415695700316341E-001
      392.313018633867600   4.947496288219643E-001
      393.355018683360000   5.484095289128952E-001
      394.397018732852300   6.002020924664472E-001
      395.439018782344700   6.478046444324241E-001
      396.481018831837000   6.891319320658071E-001
      397.523018881329300   7.225384087162571E-001
      398.565018930821700   7.469812215478542E-001
      399.607018980314000   7.620933858908755E-001
      400.649019029806400   7.681162598499034E-001
      401.691019079298700   7.656844828032815E-001
      402.733019128791100   7.555349476935341E-001
      403.775019178283400   7.382717260086158E-001
      404.817019227775800   7.143010157289128E-001
      405.859019277268100   6.839459715989857E-001
      406.901019326760400   6.476314112801918E-001
      407.943019376252800   6.059936110826306E-001
      408.985019425745100   5.598575654007215E-001
      410.027019475237500   5.101589651529440E-001
      411.069019524729800   4.579450569718340E-001
      412.111019574222200   4.045086928723169E-001
      413.153019623714500   3.515616535535822E-001
      414.195019673206800   3.012710251926171E-001
      415.237019722699200   2.560428600923049E-001
      416.279019772191500   2.180942094535562E-001
      417.321019821683900   1.889873952606934E-001
      418.363019871176200   1.693212021003553E-001
      419.405019920668600   1.586879946825819E-001
      420.447019970160900   1.558836763694570E-001
      421.489020019653300   1.592645734198817E-001
      422.531020069145600   1.671080602099309E-001
      423.573020118637900   1.778535687216579E-001
      424.615020168130300   1.901727964254359E-001
      425.657020217622600   2.029195039401684E-001
      426.699020267115000   2.150832796876293E-001
      427.741020316607300   2.258543908982254E-001
      428.783020366099700   2.347918155013391E-001
      429.825020415592000   2.419557969508417E-001
      430.867020465084400   2.478369217372956E-001
      431.909020514576700   2.530344169259642E-001
      432.951020564069000   2.578305027913537E-001
      433.993020613561400   2.619247152677743E-001
      435.035020663053700   2.645282094805823E-001
      436.077020712546100   2.648026320984914E-001
      437.119020762038400   2.624050760188162E-001
      438.161020811530800   2.578215186946002E-001
      439.203020861023100   2.522872632525884E-001
      440.245020910515500   2.473260469753966E-001
      441.287020960007800   2.441449612414676E-001
      442.329021009500100   2.431874045228404E-001
      443.371021058992500   2.440512038542177E-001
      444.413021108484800   2.457905186116738E-001
      445.455021157977200   2.474410451277411E-001
      446.497021207469500   2.485230502712993E-001
      447.539021256961900   2.493160476990168E-001
      448.581021306454200   2.508267852997968E-001
      449.623021355946600   2.545079064624152E-001
      450.665021405438900   2.618538364467403E-001
      451.707021454931200   2.739866503113392E-001
      452.749021504423600   2.912957394059121E-001
      453.791021553915900   3.131732200074853E-001
      454.833021603408300   3.379080041917561E-001
      455.875021652900600   3.628227569094339E-001
      456.917021702393000   3.847048702495559E-001
      457.959021751885300   4.004827562437173E-001
      459.001021801377700   4.079754359659874E-001
      460.043021850870000   4.064660000226585E-001
      461.085021900362300   3.968734985848276E-001
      462.127021949854700   3.814353865271489E-001
      463.169021999347000   3.630176862849363E-001
      464.211022048839400   3.443455852940253E-001
      465.253022098331700   3.274886369753220E-001
      466.295022147824100   3.137970366221104E-001
      467.337022197316400   3.042286043097895E-001
      468.379022246808700   2.997750416252426E-001
      469.421022296301100   3.016361840931959E-001
      470.463022345793400   3.109512412882738E-001
      471.505022395285800   3.281863694965605E-001
      472.547022444778100   3.525192545394607E-001
      473.589022494270500   3.816028564733995E-001
      474.631022543762800   4.119124313689783E-001
      475.673022593255200   4.396005869313398E-001
      476.715022642747500   4.615645856199753E-001
      477.757022692239800   4.763576891677513E-001
      478.799022741732200   4.846394351673803E-001
      479.841022791224500   4.890038389002756E-001
      480.883022840716900   4.932165638749348E-001
      481.925022890209200   5.011083986379311E-001
      482.967022939701600   5.155410977038312E-001
      484.009022989193900   5.378650428131955E-001
      485.051023038686300   5.680649364926241E-001
      486.093023088178600   6.054383275869102E-001
      487.135023137670900   6.493953230851380E-001
      488.177023187163300   6.999745439241113E-001
      489.219023236655600   7.578957204616778E-001
      490.261023286148000   8.241940874001552E-001
      491.303023335640300   8.995295673876183E-001
      492.345023385132700   9.831861376898777E-001
      493.387023434625000        1.071805371828819
      494.429023484117400        1.158186499665565
      495.471023533609700        1.230882896805285
      496.513023583102000        1.275426497545986
      497.555023632594400        1.277491541592835
      498.597023682086700        1.227276775626253
      499.639023731579100        1.123431006453855
      500.681023781071400   9.746706201023014E-001
      501.723023830563800   7.981116000388434E-001
      502.765023880056100   6.148391334431986E-001
      503.807023929548500   4.444972471767512E-001
      504.849023979040800   3.009839489358666E-001
      505.891024028533100   1.905971535062606E-001
      506.933024078025500   1.127319015616257E-001
      507.975024127517800   6.221339294169136E-002
      509.017024177010200   3.200679232652174E-002
      510.059024226502500   1.533852736812638E-002
      511.101024275994900   6.842355544656859E-003
      512.143024325487200   2.839436216613473E-003
      513.185024374979600   1.095490075318930E-003
      514.227024424471900   3.927332164074083E-004
      515.269024473964200   1.307609374972074E-004
      516.311024523456600   4.041493089333782E-005
      517.353024572948900   1.159028846344170E-005
      518.395024622441300   3.082852515501916E-006
      519.437024671933600   7.602330999335074E-007
      520.479024721426000   1.737469966897010E-007
      521.521024770918300   3.678887826025073E-008
      522.563024820410700   7.214521826144522E-009
      523.605024869903000   1.309977506142360E-009
      524.647024919395300   2.201754708948331E-010
      525.689024968887700   3.424647658937947E-011
      526.731025018380000   4.928409650681110E-012
      527.773025067872400   6.560730460463618E-013
      528.815025117364700   8.077380976731763E-014
      529.857025166857100   9.195763087253160E-015
      530.899025216349400   9.679134124233763E-016
      531.941025265841700   9.417936590077992E-017
      532.983025315334100   8.470134692982581E-018
      534.025025364826400   7.040285159891345E-019
      535.067025414318800   5.407673685793066E-020
      536.109025463811100   3.838047218591812E-021
      537.151025513303500   2.516825304147986E-022
      538.193025562795800   1.524774731897626E-023
      539.235025612288200   8.533719582196121E-025
      540.277025661780500   4.411886030452400E-026
      541.319025711272800   2.106877450135057E-027
      542.361025760765200   9.293120699392526E-029
      543.403025810257500   3.785921431845549E-030
      544.445025859749900   1.424464662973420E-031
      545.487025909242200   4.949780293489587E-033
      546.529025958734600   1.588400399388374E-034
      547.571026008226900   4.707181543495235E-036
      548.613026057719300   1.288181743092569E-037
      549.655026107211600   3.255352566122947E-039
      550.697026156703900   7.596509880452734E-041
      551.739026206196300   1.636879703432953E-042
      552.781026255688600   3.256853426161369E-044
      553.823026305181000   5.983446358860673E-046
      554.865026354673300   1.015009085492413E-047
      555.907026404165700   1.589820111135212E-049
      556.949026453658000   2.299218733939456E-051
      557.991026503150400   3.070167206884248E-053
      559.033026552642700   3.785199885070270E-055
      560.075026602135000   4.308803144650500E-057
      561.117026651627400   4.528578172126966E-059
      562.159026701119700   4.394415401158884E-061
      563.201026750612100   3.937053238851438E-063
      564.243026800104400   3.256638637677912E-065
      565.285026849596800   2.487100553761122E-067
      566.327026899089100   1.753638982793413E-069
      567.369026948581500   1.141584005336717E-071
      568.411026998073800   6.861109030693147E-074
      569.453027047566100   3.807129034518988E-076
      570.495027097058500   1.950365030287290E-078
      571.537027146550800   9.224600185146044E-081
      572.579027196043200   4.028013984342629E-083
